NPs no Controle de Mancha Parda no Arroz -
…
data_sev <- read_xlsx("dados_in_vivo.xlsx", 3)

data_sev$tempo <- as.numeric(as.character(data_sev$tempo))

a1 <- data_sev |> 
  group_by(trat, rep) |> 
  summarise(aacpd = AUDPC(tempo, severidade))

`summarise()` has grouped output by 'trat'. You can override using the
`.groups` argument.

a1

# A tibble: 24 × 3
# Groups:   trat [3]
   trat       rep aacpd
   <chr>    <dbl> <dbl>
 1 Controle     1 5482.
 2 Controle     2 6576 
 3 Controle     3 4472.
 4 Controle     4 5107.
 5 Controle     5 5358 
 6 Controle     6 5290.
 7 Controle     7 5335.
 8 Controle     8 5405.
 9 NPsAg        1 2577.
10 NPsAg        2 3198 
# ℹ 14 more rows
…
